{
  "name": "Looking Glass Button",
  "description": "Toggle the Looking Glass visibility by clicking on a panel icon.\n\nAnd from version 4 left clicking on the icon show a menu with new features like Restart Gnome Shell (not available on Wayland), Reload Theme, Open Extension Folder and Open Theme Folder (the last two require that xdg-open is installed).\n\nVersion 4 also drop the compatibility with Gnome Shell 3.30.",
  "uuid": "lgbutton@glerro.gnome.gitlab.io",
  "version": 15,
  "url": "https://gitlab.gnome.org/glerro/gnome-shell-extension-lgbutton",
  "gettext-domain": "gnome-shell-extension-lgbutton",
  "settings-schema": "org.gnome.shell.extensions.lgbutton",
  "shell-version": [
    "45"
  ],
  "donations": {
    "kofi": "glerro"
  }
}

